"participantID","age","gender","block_i","trial_i","stim","signal","SSD","response","rt","correct","focus","Fullscreen","time_elapsed","browser_name","browser_version","os_name","os_version","tablet","mobile","screen_resolution","window_resolution"
"7f6ab5ncghor8uzftf2xveztfr70sa6w","37","Male","0","1","left","no","200","leftarrow","543","true","focus","yes","47796","Chrome","75.0","Windows","10","undefined","undefined","1280 x 720","1280 x 720"
"7f6ab5ncghor8uzftf2xveztfr70sa6w","37","Male","0","2","left","no","200","leftarrow","255","true","focus","yes","48830","Chrome","75.0","Windows","10","undefined","undefined","1280 x 720","1280 x 720"
"7f6ab5ncghor8uzftf2xveztfr70sa6w","37","Male","0","3","left","yes","200","rightarrow","294","false","focus","yes","49897","Chrome","75.0","Windows","10","undefined","undefined","1280 x 720","1280 x 720"
"7f6ab5ncghor8uzftf2xveztfr70sa6w","37","Male","0","4","left","no","150","leftarrow","266","true","focus","yes","51705","Chrome","75.0","Windows","10","undefined","undefined","1280 x 720","1280 x 720"
"7f6ab5ncghor8uzftf2xveztfr70sa6w","37","Male","0","5","right","no","150","rightarrow","348","true","focus","yes","52836","Chrome","75.0","Windows","10","undefined","undefined","1280 x 720","1280 x 720"
"7f6ab5ncghor8uzftf2xveztfr70sa6w","37","Male","0","6","right","yes","150","rightarrow","412","false","focus","yes","54015","Chrome","75.0","Windows","10","undefined","undefined","1280 x 720","1280 x 720"
"7f6ab5ncghor8uzftf2xveztfr70sa6w","37","Male","0","7","right","no","100","leftarrow","376","false","focus","yes","55920","Chrome","75.0","Windows","10","undefined","undefined","1280 x 720","1280 x 720"
"7f6ab5ncghor8uzftf2xveztfr70sa6w","37","Male","0","8","right","no","100","rightarrow","352","true","focus","yes","57805","Chrome","75.0","Windows","10","undefined","undefined","1280 x 720","1280 x 720"
"7f6ab5ncghor8uzftf2xveztfr70sa6w","37","Male","0","9","right","no","100","rightarrow","351","true","focus","yes","58917","Chrome","75.0","Windows","10","undefined","undefined","1280 x 720","1280 x 720"
"7f6ab5ncghor8uzftf2xveztfr70sa6w","37","Male","0","10","left","no","100","leftarrow","389","true","focus","yes","60074","Chrome","75.0","Windows","10","undefined","undefined","1280 x 720","1280 x 720"
"7f6ab5ncghor8uzftf2xveztfr70sa6w","37","Male","0","11","left","yes","100","leftarrow","311","false","focus","yes","61169","Chrome","75.0","Windows","10","undefined","undefined","1280 x 720","1280 x 720"
"7f6ab5ncghor8uzftf2xveztfr70sa6w","37","Male","0","12","right","yes","50","undefined","null","true","focus","yes","63957","Chrome","75.0","Windows","10","undefined","undefined","1280 x 720","1280 x 720"
"7f6ab5ncghor8uzftf2xveztfr70sa6w","37","Male","0","13","left","no","100","leftarrow","343","true","focus","yes","65075","Chrome","75.0","Windows","10","undefined","undefined","1280 x 720","1280 x 720"
"7f6ab5ncghor8uzftf2xveztfr70sa6w","37","Male","0","14","left","no","100","leftarrow","330","true","focus","yes","66186","Chrome","75.0","Windows","10","undefined","undefined","1280 x 720","1280 x 720"
"7f6ab5ncghor8uzftf2xveztfr70sa6w","37","Male","0","15","right","no","100","rightarrow","360","true","focus","yes","67322","Chrome","75.0","Windows","10","undefined","undefined","1280 x 720","1280 x 720"
"7f6ab5ncghor8uzftf2xveztfr70sa6w","37","Male","0","16","right","no","100","rightarrow","309","true","focus","yes","68408","Chrome","75.0","Windows","10","undefined","undefined","1280 x 720","1280 x 720"
"7f6ab5ncghor8uzftf2xveztfr70sa6w","37","Male","0","17","right","yes","100","undefined","null","true","focus","yes","70434","Chrome","75.0","Windows","10","undefined","undefined","1280 x 720","1280 x 720"
"7f6ab5ncghor8uzftf2xveztfr70sa6w","37","Male","0","18","left","no","150","leftarrow","378","true","focus","yes","71575","Chrome","75.0","Windows","10","undefined","undefined","1280 x 720","1280 x 720"
"7f6ab5ncghor8uzftf2xveztfr70sa6w","37","Male","0","19","right","no","150","rightarrow","374","true","focus","yes","72730","Chrome","75.0","Windows","10","undefined","undefined","1280 x 720","1280 x 720"
"7f6ab5ncghor8uzftf2xveztfr70sa6w","37","Male","0","20","left","no","150","leftarrow","362","true","focus","yes","73874","Chrome","75.0","Windows","10","undefined","undefined","1280 x 720","1280 x 720"
"7f6ab5ncghor8uzftf2xveztfr70sa6w","37","Male","0","21","right","no","150","rightarrow","330","true","focus","yes","74980","Chrome","75.0","Windows","10","undefined","undefined","1280 x 720","1280 x 720"
"7f6ab5ncghor8uzftf2xveztfr70sa6w","37","Male","0","22","right","no","150","rightarrow","408","true","focus","yes","76155","Chrome","75.0","Windows","10","undefined","undefined","1280 x 720","1280 x 720"
"7f6ab5ncghor8uzftf2xveztfr70sa6w","37","Male","0","23","left","yes","150","leftarrow","304","false","focus","yes","77241","Chrome","75.0","Windows","10","undefined","undefined","1280 x 720","1280 x 720"
"7f6ab5ncghor8uzftf2xveztfr70sa6w","37","Male","0","24","left","no","100","leftarrow","348","true","focus","yes","79124","Chrome","75.0","Windows","10","undefined","undefined","1280 x 720","1280 x 720"
"7f6ab5ncghor8uzftf2xveztfr70sa6w","37","Male","0","25","right","no","100","rightarrow","395","true","focus","yes","80297","Chrome","75.0","Windows","10","undefined","undefined","1280 x 720","1280 x 720"
"7f6ab5ncghor8uzftf2xveztfr70sa6w","37","Male","0","26","left","yes","100","undefined","null","true","focus","yes","82320","Chrome","75.0","Windows","10","undefined","undefined","1280 x 720","1280 x 720"
"7f6ab5ncghor8uzftf2xveztfr70sa6w","37","Male","0","27","left","no","150","leftarrow","402","true","focus","yes","83498","Chrome","75.0","Windows","10","undefined","undefined","1280 x 720","1280 x 720"
"7f6ab5ncghor8uzftf2xveztfr70sa6w","37","Male","0","28","right","no","150","leftarrow","337","false","focus","yes","84601","Chrome","75.0","Windows","10","undefined","undefined","1280 x 720","1280 x 720"
"7f6ab5ncghor8uzftf2xveztfr70sa6w","37","Male","0","29","left","no","150","leftarrow","334","true","focus","yes","86458","Chrome","75.0","Windows","10","undefined","undefined","1280 x 720","1280 x 720"
"7f6ab5ncghor8uzftf2xveztfr70sa6w","37","Male","0","30","right","no","150","rightarrow","353","true","focus","yes","87587","Chrome","75.0","Windows","10","undefined","undefined","1280 x 720","1280 x 720"
"7f6ab5ncghor8uzftf2xveztfr70sa6w","37","Male","0","31","left","no","150","leftarrow","375","true","focus","yes","88723","Chrome","75.0","Windows","10","undefined","undefined","1280 x 720","1280 x 720"
"7f6ab5ncghor8uzftf2xveztfr70sa6w","37","Male","0","32","right","yes","150","rightarrow","295","false","focus","yes","89789","Chrome","75.0","Windows","10","undefined","undefined","1280 x 720","1280 x 720"
"7f6ab5ncghor8uzftf2xveztfr70sa6w","37","Male","1","1","right","yes","100","rightarrow","426","false","focus","yes","111180","Chrome","75.0","Windows","10","undefined","undefined","1280 x 720","1280 x 720"
"7f6ab5ncghor8uzftf2xveztfr70sa6w","37","Male","1","2","right","no","50","leftarrow","353","false","focus","yes","112307","Chrome","75.0","Windows","10","undefined","undefined","1280 x 720","1280 x 720"
"7f6ab5ncghor8uzftf2xveztfr70sa6w","37","Male","1","3","right","no","50","rightarrow","376","true","focus","yes","113457","Chrome","75.0","Windows","10","undefined","undefined","1280 x 720","1280 x 720"
"7f6ab5ncghor8uzftf2xveztfr70sa6w","37","Male","1","4","left","no","50","leftarrow","375","true","focus","yes","114614","Chrome","75.0","Windows","10","undefined","undefined","1280 x 720","1280 x 720"
"7f6ab5ncghor8uzftf2xveztfr70sa6w","37","Male","1","5","right","no","50","rightarrow","312","true","focus","yes","115699","Chrome","75.0","Windows","10","undefined","undefined","1280 x 720","1280 x 720"
"7f6ab5ncghor8uzftf2xveztfr70sa6w","37","Male","1","6","left","no","50","leftarrow","334","true","focus","yes","116806","Chrome","75.0","Windows","10","undefined","undefined","1280 x 720","1280 x 720"
"7f6ab5ncghor8uzftf2xveztfr70sa6w","37","Male","1","7","left","yes","50","undefined","null","true","focus","yes","118834","Chrome","75.0","Windows","10","undefined","undefined","1280 x 720","1280 x 720"
"7f6ab5ncghor8uzftf2xveztfr70sa6w","37","Male","1","8","left","no","100","leftarrow","321","true","focus","yes","119921","Chrome","75.0","Windows","10","undefined","undefined","1280 x 720","1280 x 720"
"7f6ab5ncghor8uzftf2xveztfr70sa6w","37","Male","1","9","right","yes","100","undefined","null","true","focus","yes","121950","Chrome","75.0","Windows","10","undefined","undefined","1280 x 720","1280 x 720"
"7f6ab5ncghor8uzftf2xveztfr70sa6w","37","Male","1","10","left","no","150","leftarrow","437","true","focus","yes","123165","Chrome","75.0","Windows","10","undefined","undefined","1280 x 720","1280 x 720"
"7f6ab5ncghor8uzftf2xveztfr70sa6w","37","Male","1","11","right","no","150","rightarrow","397","true","focus","yes","124340","Chrome","75.0","Windows","10","undefined","undefined","1280 x 720","1280 x 720"
"7f6ab5ncghor8uzftf2xveztfr70sa6w","37","Male","1","12","right","no","150","rightarrow","807","true","focus","yes","125913","Chrome","75.0","Windows","10","undefined","undefined","1280 x 720","1280 x 720"
"7f6ab5ncghor8uzftf2xveztfr70sa6w","37","Male","1","13","right","no","150","rightarrow","379","true","focus","yes","127069","Chrome","75.0","Windows","10","undefined","undefined","1280 x 720","1280 x 720"
"7f6ab5ncghor8uzftf2xveztfr70sa6w","37","Male","1","14","left","no","150","leftarrow","365","true","focus","yes","128201","Chrome","75.0","Windows","10","undefined","undefined","1280 x 720","1280 x 720"
"7f6ab5ncghor8uzftf2xveztfr70sa6w","37","Male","1","15","left","no","150","leftarrow","324","true","focus","yes","129290","Chrome","75.0","Windows","10","undefined","undefined","1280 x 720","1280 x 720"
"7f6ab5ncghor8uzftf2xveztfr70sa6w","37","Male","1","16","left","yes","150","undefined","null","true","focus","yes","131332","Chrome","75.0","Windows","10","undefined","undefined","1280 x 720","1280 x 720"
"7f6ab5ncghor8uzftf2xveztfr70sa6w","37","Male","1","17","right","no","200","rightarrow","395","true","focus","yes","132497","Chrome","75.0","Windows","10","undefined","undefined","1280 x 720","1280 x 720"
"7f6ab5ncghor8uzftf2xveztfr70sa6w","37","Male","1","18","left","yes","200","leftarrow","367","false","focus","yes","133650","Chrome","75.0","Windows","10","undefined","undefined","1280 x 720","1280 x 720"
"7f6ab5ncghor8uzftf2xveztfr70sa6w","37","Male","1","19","left","no","150","leftarrow","378","true","focus","yes","134792","Chrome","75.0","Windows","10","undefined","undefined","1280 x 720","1280 x 720"
"7f6ab5ncghor8uzftf2xveztfr70sa6w","37","Male","1","20","left","no","150","leftarrow","399","true","focus","yes","135955","Chrome","75.0","Windows","10","undefined","undefined","1280 x 720","1280 x 720"
"7f6ab5ncghor8uzftf2xveztfr70sa6w","37","Male","1","21","right","no","150","rightarrow","506","true","focus","yes","137233","Chrome","75.0","Windows","10","undefined","undefined","1280 x 720","1280 x 720"
"7f6ab5ncghor8uzftf2xveztfr70sa6w","37","Male","1","22","left","no","150","leftarrow","372","true","focus","yes","138371","Chrome","75.0","Windows","10","undefined","undefined","1280 x 720","1280 x 720"
"7f6ab5ncghor8uzftf2xveztfr70sa6w","37","Male","1","23","right","no","150","rightarrow","334","true","focus","yes","139482","Chrome","75.0","Windows","10","undefined","undefined","1280 x 720","1280 x 720"
"7f6ab5ncghor8uzftf2xveztfr70sa6w","37","Male","1","24","right","yes","150","undefined","null","true","focus","yes","141526","Chrome","75.0","Windows","10","undefined","undefined","1280 x 720","1280 x 720"
"7f6ab5ncghor8uzftf2xveztfr70sa6w","37","Male","1","25","right","no","200","rightarrow","362","true","focus","yes","142657","Chrome","75.0","Windows","10","undefined","undefined","1280 x 720","1280 x 720"
"7f6ab5ncghor8uzftf2xveztfr70sa6w","37","Male","1","26","right","no","200","rightarrow","358","true","focus","yes","143778","Chrome","75.0","Windows","10","undefined","undefined","1280 x 720","1280 x 720"
"7f6ab5ncghor8uzftf2xveztfr70sa6w","37","Male","1","27","right","yes","200","undefined","null","true","focus","yes","145819","Chrome","75.0","Windows","10","undefined","undefined","1280 x 720","1280 x 720"
"7f6ab5ncghor8uzftf2xveztfr70sa6w","37","Male","1","28","left","no","250","leftarrow","370","true","focus","yes","146961","Chrome","75.0","Windows","10","undefined","undefined","1280 x 720","1280 x 720"
"7f6ab5ncghor8uzftf2xveztfr70sa6w","37","Male","1","29","right","no","250","rightarrow","523","true","focus","yes","148266","Chrome","75.0","Windows","10","undefined","undefined","1280 x 720","1280 x 720"
"7f6ab5ncghor8uzftf2xveztfr70sa6w","37","Male","1","30","left","yes","250","leftarrow","373","false","focus","yes","149412","Chrome","75.0","Windows","10","undefined","undefined","1280 x 720","1280 x 720"
"7f6ab5ncghor8uzftf2xveztfr70sa6w","37","Male","1","31","left","no","200","leftarrow","349","true","focus","yes","150543","Chrome","75.0","Windows","10","undefined","undefined","1280 x 720","1280 x 720"
"7f6ab5ncghor8uzftf2xveztfr70sa6w","37","Male","1","32","left","no","200","leftarrow","424","true","focus","yes","151734","Chrome","75.0","Windows","10","undefined","undefined","1280 x 720","1280 x 720"
"7f6ab5ncghor8uzftf2xveztfr70sa6w","37","Male","1","33","right","no","200","leftarrow","338","false","focus","yes","152840","Chrome","75.0","Windows","10","undefined","undefined","1280 x 720","1280 x 720"
"7f6ab5ncghor8uzftf2xveztfr70sa6w","37","Male","1","34","left","no","200","leftarrow","379","true","focus","yes","153989","Chrome","75.0","Windows","10","undefined","undefined","1280 x 720","1280 x 720"
"7f6ab5ncghor8uzftf2xveztfr70sa6w","37","Male","1","35","right","no","200","rightarrow","333","true","focus","yes","155094","Chrome","75.0","Windows","10","undefined","undefined","1280 x 720","1280 x 720"
"7f6ab5ncghor8uzftf2xveztfr70sa6w","37","Male","1","36","left","no","200","leftarrow","412","true","focus","yes","156268","Chrome","75.0","Windows","10","undefined","undefined","1280 x 720","1280 x 720"
"7f6ab5ncghor8uzftf2xveztfr70sa6w","37","Male","1","37","left","no","200","leftarrow","452","true","focus","yes","157485","Chrome","75.0","Windows","10","undefined","undefined","1280 x 720","1280 x 720"
"7f6ab5ncghor8uzftf2xveztfr70sa6w","37","Male","1","38","right","no","200","rightarrow","370","true","focus","yes","158631","Chrome","75.0","Windows","10","undefined","undefined","1280 x 720","1280 x 720"
"7f6ab5ncghor8uzftf2xveztfr70sa6w","37","Male","1","39","right","yes","200","undefined","null","true","focus","yes","160666","Chrome","75.0","Windows","10","undefined","undefined","1280 x 720","1280 x 720"
"7f6ab5ncghor8uzftf2xveztfr70sa6w","37","Male","1","40","left","yes","250","leftarrow","397","false","focus","yes","161831","Chrome","75.0","Windows","10","undefined","undefined","1280 x 720","1280 x 720"
"7f6ab5ncghor8uzftf2xveztfr70sa6w","37","Male","1","41","right","yes","200","undefined","null","true","focus","yes","163848","Chrome","75.0","Windows","10","undefined","undefined","1280 x 720","1280 x 720"
"7f6ab5ncghor8uzftf2xveztfr70sa6w","37","Male","1","42","left","no","250","leftarrow","421","true","focus","yes","165052","Chrome","75.0","Windows","10","undefined","undefined","1280 x 720","1280 x 720"
"7f6ab5ncghor8uzftf2xveztfr70sa6w","37","Male","1","43","right","no","250","rightarrow","392","true","focus","yes","166223","Chrome","75.0","Windows","10","undefined","undefined","1280 x 720","1280 x 720"
"7f6ab5ncghor8uzftf2xveztfr70sa6w","37","Male","1","44","right","no","250","rightarrow","356","true","focus","yes","167348","Chrome","75.0","Windows","10","undefined","undefined","1280 x 720","1280 x 720"
"7f6ab5ncghor8uzftf2xveztfr70sa6w","37","Male","1","45","left","no","250","leftarrow","371","true","focus","yes","168493","Chrome","75.0","Windows","10","undefined","undefined","1280 x 720","1280 x 720"
"7f6ab5ncghor8uzftf2xveztfr70sa6w","37","Male","1","46","left","yes","250","leftarrow","397","false","focus","yes","169658","Chrome","75.0","Windows","10","undefined","undefined","1280 x 720","1280 x 720"
"7f6ab5ncghor8uzftf2xveztfr70sa6w","37","Male","1","47","right","no","200","rightarrow","418","true","focus","yes","170832","Chrome","75.0","Windows","10","undefined","undefined","1280 x 720","1280 x 720"
"7f6ab5ncghor8uzftf2xveztfr70sa6w","37","Male","1","48","left","no","200","leftarrow","333","true","focus","yes","171922","Chrome","75.0","Windows","10","undefined","undefined","1280 x 720","1280 x 720"
"7f6ab5ncghor8uzftf2xveztfr70sa6w","37","Male","1","49","right","yes","200","rightarrow","402","false","focus","yes","173098","Chrome","75.0","Windows","10","undefined","undefined","1280 x 720","1280 x 720"
"7f6ab5ncghor8uzftf2xveztfr70sa6w","37","Male","1","50","left","yes","150","leftarrow","375","false","focus","yes","174234","Chrome","75.0","Windows","10","undefined","undefined","1280 x 720","1280 x 720"
"7f6ab5ncghor8uzftf2xveztfr70sa6w","37","Male","1","51","right","no","100","undefined","null","false","focus","yes","176272","Chrome","75.0","Windows","10","undefined","undefined","1280 x 720","1280 x 720"
"7f6ab5ncghor8uzftf2xveztfr70sa6w","37","Male","1","52","right","no","100","rightarrow","561","true","focus","yes","177616","Chrome","75.0","Windows","10","undefined","undefined","1280 x 720","1280 x 720"
"7f6ab5ncghor8uzftf2xveztfr70sa6w","37","Male","1","53","right","no","100","rightarrow","317","true","focus","yes","178700","Chrome","75.0","Windows","10","undefined","undefined","1280 x 720","1280 x 720"
"7f6ab5ncghor8uzftf2xveztfr70sa6w","37","Male","1","54","left","no","100","leftarrow","373","true","focus","yes","179852","Chrome","75.0","Windows","10","undefined","undefined","1280 x 720","1280 x 720"
"7f6ab5ncghor8uzftf2xveztfr70sa6w","37","Male","1","55","left","no","100","leftarrow","379","true","focus","yes","181015","Chrome","75.0","Windows","10","undefined","undefined","1280 x 720","1280 x 720"
"7f6ab5ncghor8uzftf2xveztfr70sa6w","37","Male","1","56","left","no","100","leftarrow","383","true","focus","yes","182174","Chrome","75.0","Windows","10","undefined","undefined","1280 x 720","1280 x 720"
"7f6ab5ncghor8uzftf2xveztfr70sa6w","37","Male","1","57","right","no","100","rightarrow","400","true","focus","yes","183351","Chrome","75.0","Windows","10","undefined","undefined","1280 x 720","1280 x 720"
"7f6ab5ncghor8uzftf2xveztfr70sa6w","37","Male","1","58","left","no","100","leftarrow","315","true","focus","yes","184439","Chrome","75.0","Windows","10","undefined","undefined","1280 x 720","1280 x 720"
"7f6ab5ncghor8uzftf2xveztfr70sa6w","37","Male","1","59","right","no","100","rightarrow","353","true","focus","yes","185573","Chrome","75.0","Windows","10","undefined","undefined","1280 x 720","1280 x 720"
"7f6ab5ncghor8uzftf2xveztfr70sa6w","37","Male","1","60","left","no","100","leftarrow","525","true","focus","yes","186875","Chrome","75.0","Windows","10","undefined","undefined","1280 x 720","1280 x 720"
"7f6ab5ncghor8uzftf2xveztfr70sa6w","37","Male","1","61","left","yes","100","undefined","null","true","focus","yes","188904","Chrome","75.0","Windows","10","undefined","undefined","1280 x 720","1280 x 720"
"7f6ab5ncghor8uzftf2xveztfr70sa6w","37","Male","1","62","right","yes","150","rightarrow","363","false","focus","yes","190052","Chrome","75.0","Windows","10","undefined","undefined","1280 x 720","1280 x 720"
"7f6ab5ncghor8uzftf2xveztfr70sa6w","37","Male","1","63","right","no","100","rightarrow","358","true","focus","yes","191173","Chrome","75.0","Windows","10","undefined","undefined","1280 x 720","1280 x 720"
"7f6ab5ncghor8uzftf2xveztfr70sa6w","37","Male","1","64","left","no","100","leftarrow","341","true","focus","yes","192291","Chrome","75.0","Windows","10","undefined","undefined","1280 x 720","1280 x 720"
"7f6ab5ncghor8uzftf2xveztfr70sa6w","37","Male","2","1","right","no","100","rightarrow","384","true","focus","yes","212395","Chrome","75.0","Windows","10","undefined","undefined","1280 x 720","1280 x 720"
"7f6ab5ncghor8uzftf2xveztfr70sa6w","37","Male","2","2","left","no","100","leftarrow","342","true","focus","yes","213513","Chrome","75.0","Windows","10","undefined","undefined","1280 x 720","1280 x 720"
"7f6ab5ncghor8uzftf2xveztfr70sa6w","37","Male","2","3","left","yes","100","undefined","null","true","focus","yes","215538","Chrome","75.0","Windows","10","undefined","undefined","1280 x 720","1280 x 720"
"7f6ab5ncghor8uzftf2xveztfr70sa6w","37","Male","2","4","right","yes","150","rightarrow","371","false","focus","yes","216685","Chrome","75.0","Windows","10","undefined","undefined","1280 x 720","1280 x 720"
"7f6ab5ncghor8uzftf2xveztfr70sa6w","37","Male","2","5","left","no","100","leftarrow","358","true","focus","yes","217824","Chrome","75.0","Windows","10","undefined","undefined","1280 x 720","1280 x 720"
"7f6ab5ncghor8uzftf2xveztfr70sa6w","37","Male","2","6","right","no","100","rightarrow","384","true","focus","yes","218985","Chrome","75.0","Windows","10","undefined","undefined","1280 x 720","1280 x 720"
"7f6ab5ncghor8uzftf2xveztfr70sa6w","37","Male","2","7","right","no","100","rightarrow","427","true","focus","yes","220175","Chrome","75.0","Windows","10","undefined","undefined","1280 x 720","1280 x 720"
"7f6ab5ncghor8uzftf2xveztfr70sa6w","37","Male","2","8","left","no","100","leftarrow","330","true","focus","yes","221273","Chrome","75.0","Windows","10","undefined","undefined","1280 x 720","1280 x 720"
"7f6ab5ncghor8uzftf2xveztfr70sa6w","37","Male","2","9","right","no","100","rightarrow","353","true","focus","yes","222395","Chrome","75.0","Windows","10","undefined","undefined","1280 x 720","1280 x 720"
"7f6ab5ncghor8uzftf2xveztfr70sa6w","37","Male","2","10","left","yes","100","undefined","null","true","focus","yes","224431","Chrome","75.0","Windows","10","undefined","undefined","1280 x 720","1280 x 720"
"7f6ab5ncghor8uzftf2xveztfr70sa6w","37","Male","2","11","right","yes","150","rightarrow","369","false","focus","yes","225570","Chrome","75.0","Windows","10","undefined","undefined","1280 x 720","1280 x 720"
"7f6ab5ncghor8uzftf2xveztfr70sa6w","37","Male","2","12","right","no","100","rightarrow","397","true","focus","yes","226734","Chrome","75.0","Windows","10","undefined","undefined","1280 x 720","1280 x 720"
"7f6ab5ncghor8uzftf2xveztfr70sa6w","37","Male","2","13","left","no","100","leftarrow","406","true","focus","yes","227914","Chrome","75.0","Windows","10","undefined","undefined","1280 x 720","1280 x 720"
"7f6ab5ncghor8uzftf2xveztfr70sa6w","37","Male","2","14","left","no","100","leftarrow","339","true","focus","yes","229023","Chrome","75.0","Windows","10","undefined","undefined","1280 x 720","1280 x 720"
"7f6ab5ncghor8uzftf2xveztfr70sa6w","37","Male","2","15","right","no","100","rightarrow","313","true","focus","yes","230108","Chrome","75.0","Windows","10","undefined","undefined","1280 x 720","1280 x 720"
"7f6ab5ncghor8uzftf2xveztfr70sa6w","37","Male","2","16","left","no","100","leftarrow","375","true","focus","yes","231242","Chrome","75.0","Windows","10","undefined","undefined","1280 x 720","1280 x 720"
"7f6ab5ncghor8uzftf2xveztfr70sa6w","37","Male","2","17","right","no","100","rightarrow","319","true","focus","yes","232328","Chrome","75.0","Windows","10","undefined","undefined","1280 x 720","1280 x 720"
"7f6ab5ncghor8uzftf2xveztfr70sa6w","37","Male","2","18","right","no","100","rightarrow","352","true","focus","yes","233448","Chrome","75.0","Windows","10","undefined","undefined","1280 x 720","1280 x 720"
"7f6ab5ncghor8uzftf2xveztfr70sa6w","37","Male","2","19","left","yes","100","undefined","null","true","focus","yes","235483","Chrome","75.0","Windows","10","undefined","undefined","1280 x 720","1280 x 720"
"7f6ab5ncghor8uzftf2xveztfr70sa6w","37","Male","2","20","right","no","150","rightarrow","402","true","focus","yes","236661","Chrome","75.0","Windows","10","undefined","undefined","1280 x 720","1280 x 720"
"7f6ab5ncghor8uzftf2xveztfr70sa6w","37","Male","2","21","left","no","150","leftarrow","497","true","focus","yes","237926","Chrome","75.0","Windows","10","undefined","undefined","1280 x 720","1280 x 720"
"7f6ab5ncghor8uzftf2xveztfr70sa6w","37","Male","2","22","left","no","150","leftarrow","417","true","focus","yes","239110","Chrome","75.0","Windows","10","undefined","undefined","1280 x 720","1280 x 720"
"7f6ab5ncghor8uzftf2xveztfr70sa6w","37","Male","2","23","right","yes","150","rightarrow","329","false","focus","yes","240214","Chrome","75.0","Windows","10","undefined","undefined","1280 x 720","1280 x 720"
"7f6ab5ncghor8uzftf2xveztfr70sa6w","37","Male","2","24","left","no","100","leftarrow","351","true","focus","yes","241334","Chrome","75.0","Windows","10","undefined","undefined","1280 x 720","1280 x 720"
"7f6ab5ncghor8uzftf2xveztfr70sa6w","37","Male","2","25","right","no","100","rightarrow","332","true","focus","yes","242436","Chrome","75.0","Windows","10","undefined","undefined","1280 x 720","1280 x 720"
"7f6ab5ncghor8uzftf2xveztfr70sa6w","37","Male","2","26","right","no","100","rightarrow","414","true","focus","yes","243618","Chrome","75.0","Windows","10","undefined","undefined","1280 x 720","1280 x 720"
"7f6ab5ncghor8uzftf2xveztfr70sa6w","37","Male","2","27","right","no","100","rightarrow","353","true","focus","yes","244746","Chrome","75.0","Windows","10","undefined","undefined","1280 x 720","1280 x 720"
"7f6ab5ncghor8uzftf2xveztfr70sa6w","37","Male","2","28","left","no","100","leftarrow","307","true","focus","yes","245823","Chrome","75.0","Windows","10","undefined","undefined","1280 x 720","1280 x 720"
"7f6ab5ncghor8uzftf2xveztfr70sa6w","37","Male","2","29","left","yes","100","undefined","null","true","focus","yes","247834","Chrome","75.0","Windows","10","undefined","undefined","1280 x 720","1280 x 720"
"7f6ab5ncghor8uzftf2xveztfr70sa6w","37","Male","2","30","left","no","150","leftarrow","433","true","focus","yes","249045","Chrome","75.0","Windows","10","undefined","undefined","1280 x 720","1280 x 720"
"7f6ab5ncghor8uzftf2xveztfr70sa6w","37","Male","2","31","right","yes","150","rightarrow","362","false","focus","yes","250181","Chrome","75.0","Windows","10","undefined","undefined","1280 x 720","1280 x 720"
"7f6ab5ncghor8uzftf2xveztfr70sa6w","37","Male","2","32","left","no","100","leftarrow","359","true","focus","yes","251312","Chrome","75.0","Windows","10","undefined","undefined","1280 x 720","1280 x 720"
"7f6ab5ncghor8uzftf2xveztfr70sa6w","37","Male","2","33","left","no","100","leftarrow","379","true","focus","yes","252474","Chrome","75.0","Windows","10","undefined","undefined","1280 x 720","1280 x 720"
"7f6ab5ncghor8uzftf2xveztfr70sa6w","37","Male","2","34","right","no","100","rightarrow","311","true","focus","yes","253542","Chrome","75.0","Windows","10","undefined","undefined","1280 x 720","1280 x 720"
"7f6ab5ncghor8uzftf2xveztfr70sa6w","37","Male","2","35","left","no","100","leftarrow","498","true","focus","yes","254803","Chrome","75.0","Windows","10","undefined","undefined","1280 x 720","1280 x 720"
"7f6ab5ncghor8uzftf2xveztfr70sa6w","37","Male","2","36","right","no","100","rightarrow","279","true","focus","yes","255848","Chrome","75.0","Windows","10","undefined","undefined","1280 x 720","1280 x 720"
"7f6ab5ncghor8uzftf2xveztfr70sa6w","37","Male","2","37","right","yes","100","undefined","null","true","focus","yes","257866","Chrome","75.0","Windows","10","undefined","undefined","1280 x 720","1280 x 720"
"7f6ab5ncghor8uzftf2xveztfr70sa6w","37","Male","2","38","right","no","150","rightarrow","424","true","focus","yes","259070","Chrome","75.0","Windows","10","undefined","undefined","1280 x 720","1280 x 720"
"7f6ab5ncghor8uzftf2xveztfr70sa6w","37","Male","2","39","left","yes","150","leftarrow","363","false","focus","yes","260210","Chrome","75.0","Windows","10","undefined","undefined","1280 x 720","1280 x 720"
"7f6ab5ncghor8uzftf2xveztfr70sa6w","37","Male","2","40","left","no","100","leftarrow","384","true","focus","yes","261363","Chrome","75.0","Windows","10","undefined","undefined","1280 x 720","1280 x 720"
"7f6ab5ncghor8uzftf2xveztfr70sa6w","37","Male","2","41","right","yes","100","rightarrow","386","false","focus","yes","262527","Chrome","75.0","Windows","10","undefined","undefined","1280 x 720","1280 x 720"
"7f6ab5ncghor8uzftf2xveztfr70sa6w","37","Male","2","42","left","no","50","leftarrow","348","true","focus","yes","263647","Chrome","75.0","Windows","10","undefined","undefined","1280 x 720","1280 x 720"
"7f6ab5ncghor8uzftf2xveztfr70sa6w","37","Male","2","43","right","no","50","rightarrow","330","true","focus","yes","264751","Chrome","75.0","Windows","10","undefined","undefined","1280 x 720","1280 x 720"
"7f6ab5ncghor8uzftf2xveztfr70sa6w","37","Male","2","44","left","no","50","leftarrow","331","true","focus","yes","265847","Chrome","75.0","Windows","10","undefined","undefined","1280 x 720","1280 x 720"
"7f6ab5ncghor8uzftf2xveztfr70sa6w","37","Male","2","45","left","no","50","leftarrow","360","true","focus","yes","266990","Chrome","75.0","Windows","10","undefined","undefined","1280 x 720","1280 x 720"
"7f6ab5ncghor8uzftf2xveztfr70sa6w","37","Male","2","46","left","yes","50","undefined","null","true","focus","yes","269013","Chrome","75.0","Windows","10","undefined","undefined","1280 x 720","1280 x 720"
"7f6ab5ncghor8uzftf2xveztfr70sa6w","37","Male","2","47","right","no","100","rightarrow","399","true","focus","yes","270185","Chrome","75.0","Windows","10","undefined","undefined","1280 x 720","1280 x 720"
"7f6ab5ncghor8uzftf2xveztfr70sa6w","37","Male","2","48","right","no","100","rightarrow","337","true","focus","yes","271297","Chrome","75.0","Windows","10","undefined","undefined","1280 x 720","1280 x 720"
"7f6ab5ncghor8uzftf2xveztfr70sa6w","37","Male","2","49","left","no","100","leftarrow","870","true","focus","yes","272940","Chrome","75.0","Windows","10","undefined","undefined","1280 x 720","1280 x 720"
"7f6ab5ncghor8uzftf2xveztfr70sa6w","37","Male","2","50","right","no","100","rightarrow","358","true","focus","yes","274083","Chrome","75.0","Windows","10","undefined","undefined","1280 x 720","1280 x 720"
"7f6ab5ncghor8uzftf2xveztfr70sa6w","37","Male","2","51","left","no","100","leftarrow","370","true","focus","yes","275217","Chrome","75.0","Windows","10","undefined","undefined","1280 x 720","1280 x 720"
"7f6ab5ncghor8uzftf2xveztfr70sa6w","37","Male","2","52","right","no","100","rightarrow","267","true","focus","yes","276263","Chrome","75.0","Windows","10","undefined","undefined","1280 x 720","1280 x 720"
"7f6ab5ncghor8uzftf2xveztfr70sa6w","37","Male","2","53","right","yes","100","leftarrow","246","false","focus","yes","277277","Chrome","75.0","Windows","10","undefined","undefined","1280 x 720","1280 x 720"
"7f6ab5ncghor8uzftf2xveztfr70sa6w","37","Male","2","54","left","yes","50","undefined","null","true","focus","yes","279312","Chrome","75.0","Windows","10","undefined","undefined","1280 x 720","1280 x 720"
"7f6ab5ncghor8uzftf2xveztfr70sa6w","37","Male","2","55","right","no","100","rightarrow","425","true","focus","yes","280520","Chrome","75.0","Windows","10","undefined","undefined","1280 x 720","1280 x 720"
"7f6ab5ncghor8uzftf2xveztfr70sa6w","37","Male","2","56","left","no","100","leftarrow","355","true","focus","yes","281641","Chrome","75.0","Windows","10","undefined","undefined","1280 x 720","1280 x 720"
"7f6ab5ncghor8uzftf2xveztfr70sa6w","37","Male","2","57","left","no","100","leftarrow","319","true","focus","yes","282736","Chrome","75.0","Windows","10","undefined","undefined","1280 x 720","1280 x 720"
"7f6ab5ncghor8uzftf2xveztfr70sa6w","37","Male","2","58","left","no","100","leftarrow","377","true","focus","yes","283883","Chrome","75.0","Windows","10","undefined","undefined","1280 x 720","1280 x 720"
"7f6ab5ncghor8uzftf2xveztfr70sa6w","37","Male","2","59","right","no","100","rightarrow","417","true","focus","yes","285078","Chrome","75.0","Windows","10","undefined","undefined","1280 x 720","1280 x 720"
"7f6ab5ncghor8uzftf2xveztfr70sa6w","37","Male","2","60","left","no","100","leftarrow","279","true","focus","yes","286121","Chrome","75.0","Windows","10","undefined","undefined","1280 x 720","1280 x 720"
"7f6ab5ncghor8uzftf2xveztfr70sa6w","37","Male","2","61","right","yes","100","undefined","null","true","focus","yes","288142","Chrome","75.0","Windows","10","undefined","undefined","1280 x 720","1280 x 720"
"7f6ab5ncghor8uzftf2xveztfr70sa6w","37","Male","2","62","left","yes","150","leftarrow","378","false","focus","yes","289277","Chrome","75.0","Windows","10","undefined","undefined","1280 x 720","1280 x 720"
"7f6ab5ncghor8uzftf2xveztfr70sa6w","37","Male","2","63","right","no","100","rightarrow","394","true","focus","yes","290442","Chrome","75.0","Windows","10","undefined","undefined","1280 x 720","1280 x 720"
"7f6ab5ncghor8uzftf2xveztfr70sa6w","37","Male","2","64","right","no","100","rightarrow","400","true","focus","yes","291621","Chrome","75.0","Windows","10","undefined","undefined","1280 x 720","1280 x 720"
"7f6ab5ncghor8uzftf2xveztfr70sa6w","37","Male","3","1","right","yes","100","rightarrow","392","false","focus","yes","311082","Chrome","75.0","Windows","10","undefined","undefined","1280 x 720","1280 x 720"
"7f6ab5ncghor8uzftf2xveztfr70sa6w","37","Male","3","2","left","yes","50","undefined","null","true","focus","yes","313109","Chrome","75.0","Windows","10","undefined","undefined","1280 x 720","1280 x 720"
"7f6ab5ncghor8uzftf2xveztfr70sa6w","37","Male","3","3","left","no","100","leftarrow","367","true","focus","yes","314253","Chrome","75.0","Windows","10","undefined","undefined","1280 x 720","1280 x 720"
"7f6ab5ncghor8uzftf2xveztfr70sa6w","37","Male","3","4","right","no","100","rightarrow","332","true","focus","yes","315360","Chrome","75.0","Windows","10","undefined","undefined","1280 x 720","1280 x 720"
"7f6ab5ncghor8uzftf2xveztfr70sa6w","37","Male","3","5","left","no","100","leftarrow","326","true","focus","yes","316453","Chrome","75.0","Windows","10","undefined","undefined","1280 x 720","1280 x 720"
"7f6ab5ncghor8uzftf2xveztfr70sa6w","37","Male","3","6","left","no","100","leftarrow","362","true","focus","yes","317582","Chrome","75.0","Windows","10","undefined","undefined","1280 x 720","1280 x 720"
"7f6ab5ncghor8uzftf2xveztfr70sa6w","37","Male","3","7","right","no","100","rightarrow","318","true","focus","yes","318668","Chrome","75.0","Windows","10","undefined","undefined","1280 x 720","1280 x 720"
"7f6ab5ncghor8uzftf2xveztfr70sa6w","37","Male","3","8","right","no","100","rightarrow","296","true","focus","yes","319734","Chrome","75.0","Windows","10","undefined","undefined","1280 x 720","1280 x 720"
"7f6ab5ncghor8uzftf2xveztfr70sa6w","37","Male","3","9","right","no","100","leftarrow","289","false","focus","yes","320798","Chrome","75.0","Windows","10","undefined","undefined","1280 x 720","1280 x 720"
"7f6ab5ncghor8uzftf2xveztfr70sa6w","37","Male","3","10","left","no","100","leftarrow","393","true","focus","yes","321958","Chrome","75.0","Windows","10","undefined","undefined","1280 x 720","1280 x 720"
"7f6ab5ncghor8uzftf2xveztfr70sa6w","37","Male","3","11","left","yes","100","undefined","null","true","focus","yes","324009","Chrome","75.0","Windows","10","undefined","undefined","1280 x 720","1280 x 720"
"7f6ab5ncghor8uzftf2xveztfr70sa6w","37","Male","3","12","right","no","150","rightarrow","342","true","focus","yes","325132","Chrome","75.0","Windows","10","undefined","undefined","1280 x 720","1280 x 720"
"7f6ab5ncghor8uzftf2xveztfr70sa6w","37","Male","3","13","right","yes","150","rightarrow","344","false","focus","yes","326253","Chrome","75.0","Windows","10","undefined","undefined","1280 x 720","1280 x 720"
"7f6ab5ncghor8uzftf2xveztfr70sa6w","37","Male","3","14","left","no","100","leftarrow","374","true","focus","yes","327394","Chrome","75.0","Windows","10","undefined","undefined","1280 x 720","1280 x 720"
"7f6ab5ncghor8uzftf2xveztfr70sa6w","37","Male","3","15","left","no","100","leftarrow","317","true","focus","yes","328489","Chrome","75.0","Windows","10","undefined","undefined","1280 x 720","1280 x 720"
"7f6ab5ncghor8uzftf2xveztfr70sa6w","37","Male","3","16","right","no","100","leftarrow","345","false","focus","yes","329620","Chrome","75.0","Windows","10","undefined","undefined","1280 x 720","1280 x 720"
"7f6ab5ncghor8uzftf2xveztfr70sa6w","37","Male","3","17","right","yes","100","undefined","null","true","focus","yes","331638","Chrome","75.0","Windows","10","undefined","undefined","1280 x 720","1280 x 720"
"7f6ab5ncghor8uzftf2xveztfr70sa6w","37","Male","3","18","left","no","150","leftarrow","393","true","focus","yes","332793","Chrome","75.0","Windows","10","undefined","undefined","1280 x 720","1280 x 720"
"7f6ab5ncghor8uzftf2xveztfr70sa6w","37","Male","3","19","right","no","150","rightarrow","377","true","focus","yes","333946","Chrome","75.0","Windows","10","undefined","undefined","1280 x 720","1280 x 720"
"7f6ab5ncghor8uzftf2xveztfr70sa6w","37","Male","3","20","left","yes","150","undefined","null","true","focus","yes","335989","Chrome","75.0","Windows","10","undefined","undefined","1280 x 720","1280 x 720"
"7f6ab5ncghor8uzftf2xveztfr70sa6w","37","Male","3","21","right","no","200","rightarrow","400","true","focus","yes","337165","Chrome","75.0","Windows","10","undefined","undefined","1280 x 720","1280 x 720"
"7f6ab5ncghor8uzftf2xveztfr70sa6w","37","Male","3","22","right","no","200","rightarrow","324","true","focus","yes","338264","Chrome","75.0","Windows","10","undefined","undefined","1280 x 720","1280 x 720"
"7f6ab5ncghor8uzftf2xveztfr70sa6w","37","Male","3","23","left","no","200","leftarrow","377","true","focus","yes","339400","Chrome","75.0","Windows","10","undefined","undefined","1280 x 720","1280 x 720"
"7f6ab5ncghor8uzftf2xveztfr70sa6w","37","Male","3","24","left","no","200","leftarrow","340","true","focus","yes","340505","Chrome","75.0","Windows","10","undefined","undefined","1280 x 720","1280 x 720"
"7f6ab5ncghor8uzftf2xveztfr70sa6w","37","Male","3","25","left","no","200","leftarrow","350","true","focus","yes","341632","Chrome","75.0","Windows","10","undefined","undefined","1280 x 720","1280 x 720"
"7f6ab5ncghor8uzftf2xveztfr70sa6w","37","Male","3","26","right","no","200","rightarrow","362","true","focus","yes","342762","Chrome","75.0","Windows","10","undefined","undefined","1280 x 720","1280 x 720"
"7f6ab5ncghor8uzftf2xveztfr70sa6w","37","Male","3","27","left","no","200","leftarrow","421","true","focus","yes","343959","Chrome","75.0","Windows","10","undefined","undefined","1280 x 720","1280 x 720"
"7f6ab5ncghor8uzftf2xveztfr70sa6w","37","Male","3","28","right","no","200","rightarrow","346","true","focus","yes","345067","Chrome","75.0","Windows","10","undefined","undefined","1280 x 720","1280 x 720"
"7f6ab5ncghor8uzftf2xveztfr70sa6w","37","Male","3","29","left","yes","200","leftarrow","301","false","focus","yes","346151","Chrome","75.0","Windows","10","undefined","undefined","1280 x 720","1280 x 720"
"7f6ab5ncghor8uzftf2xveztfr70sa6w","37","Male","3","30","left","no","150","leftarrow","348","true","focus","yes","347267","Chrome","75.0","Windows","10","undefined","undefined","1280 x 720","1280 x 720"
"7f6ab5ncghor8uzftf2xveztfr70sa6w","37","Male","3","31","right","no","150","rightarrow","415","true","focus","yes","348445","Chrome","75.0","Windows","10","undefined","undefined","1280 x 720","1280 x 720"
"7f6ab5ncghor8uzftf2xveztfr70sa6w","37","Male","3","32","right","yes","150","undefined","null","true","focus","yes","350477","Chrome","75.0","Windows","10","undefined","undefined","1280 x 720","1280 x 720"
"7f6ab5ncghor8uzftf2xveztfr70sa6w","37","Male","3","33","left","yes","200","leftarrow","354","false","focus","yes","351605","Chrome","75.0","Windows","10","undefined","undefined","1280 x 720","1280 x 720"
"7f6ab5ncghor8uzftf2xveztfr70sa6w","37","Male","3","34","right","no","150","rightarrow","344","true","focus","yes","352711","Chrome","75.0","Windows","10","undefined","undefined","1280 x 720","1280 x 720"
"7f6ab5ncghor8uzftf2xveztfr70sa6w","37","Male","3","35","left","no","150","leftarrow","338","true","focus","yes","353806","Chrome","75.0","Windows","10","undefined","undefined","1280 x 720","1280 x 720"
"7f6ab5ncghor8uzftf2xveztfr70sa6w","37","Male","3","36","left","no","150","leftarrow","330","true","focus","yes","354915","Chrome","75.0","Windows","10","undefined","undefined","1280 x 720","1280 x 720"
"7f6ab5ncghor8uzftf2xveztfr70sa6w","37","Male","3","37","right","no","150","rightarrow","368","true","focus","yes","356053","Chrome","75.0","Windows","10","undefined","undefined","1280 x 720","1280 x 720"
"7f6ab5ncghor8uzftf2xveztfr70sa6w","37","Male","3","38","left","no","150","leftarrow","308","true","focus","yes","357137","Chrome","75.0","Windows","10","undefined","undefined","1280 x 720","1280 x 720"
"7f6ab5ncghor8uzftf2xveztfr70sa6w","37","Male","3","39","right","yes","150","rightarrow","347","false","focus","yes","358266","Chrome","75.0","Windows","10","undefined","undefined","1280 x 720","1280 x 720"
"7f6ab5ncghor8uzftf2xveztfr70sa6w","37","Male","3","40","right","no","100","rightarrow","452","true","focus","yes","359491","Chrome","75.0","Windows","10","undefined","undefined","1280 x 720","1280 x 720"
"7f6ab5ncghor8uzftf2xveztfr70sa6w","37","Male","3","41","right","no","100","rightarrow","418","true","focus","yes","360681","Chrome","75.0","Windows","10","undefined","undefined","1280 x 720","1280 x 720"
"7f6ab5ncghor8uzftf2xveztfr70sa6w","37","Male","3","42","left","yes","100","undefined","null","true","focus","yes","362715","Chrome","75.0","Windows","10","undefined","undefined","1280 x 720","1280 x 720"
"7f6ab5ncghor8uzftf2xveztfr70sa6w","37","Male","3","43","left","no","150","leftarrow","388","true","focus","yes","363876","Chrome","75.0","Windows","10","undefined","undefined","1280 x 720","1280 x 720"
"7f6ab5ncghor8uzftf2xveztfr70sa6w","37","Male","3","44","right","no","150","rightarrow","360","true","focus","yes","365004","Chrome","75.0","Windows","10","undefined","undefined","1280 x 720","1280 x 720"
"7f6ab5ncghor8uzftf2xveztfr70sa6w","37","Male","3","45","left","no","150","leftarrow","279","true","focus","yes","366048","Chrome","75.0","Windows","10","undefined","undefined","1280 x 720","1280 x 720"
"7f6ab5ncghor8uzftf2xveztfr70sa6w","37","Male","3","46","left","no","150","leftarrow","369","true","focus","yes","367180","Chrome","75.0","Windows","10","undefined","undefined","1280 x 720","1280 x 720"
"7f6ab5ncghor8uzftf2xveztfr70sa6w","37","Male","3","47","right","no","150","rightarrow","349","true","focus","yes","368298","Chrome","75.0","Windows","10","undefined","undefined","1280 x 720","1280 x 720"
"7f6ab5ncghor8uzftf2xveztfr70sa6w","37","Male","3","48","right","yes","150","undefined","null","true","focus","yes","370337","Chrome","75.0","Windows","10","undefined","undefined","1280 x 720","1280 x 720"
"7f6ab5ncghor8uzftf2xveztfr70sa6w","37","Male","3","49","right","no","200","rightarrow","379","true","focus","yes","371477","Chrome","75.0","Windows","10","undefined","undefined","1280 x 720","1280 x 720"
"7f6ab5ncghor8uzftf2xveztfr70sa6w","37","Male","3","50","right","no","200","rightarrow","314","true","focus","yes","372555","Chrome","75.0","Windows","10","undefined","undefined","1280 x 720","1280 x 720"
"7f6ab5ncghor8uzftf2xveztfr70sa6w","37","Male","3","51","right","no","200","rightarrow","334","true","focus","yes","373671","Chrome","75.0","Windows","10","undefined","undefined","1280 x 720","1280 x 720"
"7f6ab5ncghor8uzftf2xveztfr70sa6w","37","Male","3","52","left","no","200","leftarrow","390","true","focus","yes","374845","Chrome","75.0","Windows","10","undefined","undefined","1280 x 720","1280 x 720"
"7f6ab5ncghor8uzftf2xveztfr70sa6w","37","Male","3","53","right","yes","200","rightarrow","402","false","focus","yes","376013","Chrome","75.0","Windows","10","undefined","undefined","1280 x 720","1280 x 720"
"7f6ab5ncghor8uzftf2xveztfr70sa6w","37","Male","3","54","left","no","150","leftarrow","387","true","focus","yes","377166","Chrome","75.0","Windows","10","undefined","undefined","1280 x 720","1280 x 720"
"7f6ab5ncghor8uzftf2xveztfr70sa6w","37","Male","3","55","left","no","150","leftarrow","338","true","focus","yes","378292","Chrome","75.0","Windows","10","undefined","undefined","1280 x 720","1280 x 720"
"7f6ab5ncghor8uzftf2xveztfr70sa6w","37","Male","3","56","left","yes","150","leftarrow","377","false","focus","yes","379452","Chrome","75.0","Windows","10","undefined","undefined","1280 x 720","1280 x 720"
"7f6ab5ncghor8uzftf2xveztfr70sa6w","37","Male","3","57","left","yes","100","undefined","null","true","focus","yes","381500","Chrome","75.0","Windows","10","undefined","undefined","1280 x 720","1280 x 720"
"7f6ab5ncghor8uzftf2xveztfr70sa6w","37","Male","3","58","left","no","150","leftarrow","333","true","focus","yes","382615","Chrome","75.0","Windows","10","undefined","undefined","1280 x 720","1280 x 720"
"7f6ab5ncghor8uzftf2xveztfr70sa6w","37","Male","3","59","left","no","150","leftarrow","348","true","focus","yes","383747","Chrome","75.0","Windows","10","undefined","undefined","1280 x 720","1280 x 720"
"7f6ab5ncghor8uzftf2xveztfr70sa6w","37","Male","3","60","left","no","150","leftarrow","330","true","focus","yes","384851","Chrome","75.0","Windows","10","undefined","undefined","1280 x 720","1280 x 720"
"7f6ab5ncghor8uzftf2xveztfr70sa6w","37","Male","3","61","right","no","150","rightarrow","561","true","focus","yes","386181","Chrome","75.0","Windows","10","undefined","undefined","1280 x 720","1280 x 720"
"7f6ab5ncghor8uzftf2xveztfr70sa6w","37","Male","3","62","right","yes","150","rightarrow","387","false","focus","yes","387341","Chrome","75.0","Windows","10","undefined","undefined","1280 x 720","1280 x 720"
"7f6ab5ncghor8uzftf2xveztfr70sa6w","37","Male","3","63","right","no","100","rightarrow","376","true","focus","yes","388481","Chrome","75.0","Windows","10","undefined","undefined","1280 x 720","1280 x 720"
"7f6ab5ncghor8uzftf2xveztfr70sa6w","37","Male","3","64","right","no","100","rightarrow","324","true","focus","yes","389565","Chrome","75.0","Windows","10","undefined","undefined","1280 x 720","1280 x 720"
"7f6ab5ncghor8uzftf2xveztfr70sa6w","37","Male","4","1","right","no","100","rightarrow","401","true","focus","yes","408960","Chrome","75.0","Windows","10","undefined","undefined","1280 x 720","1280 x 720"
"7f6ab5ncghor8uzftf2xveztfr70sa6w","37","Male","4","2","right","no","100","rightarrow","438","true","focus","yes","410180","Chrome","75.0","Windows","10","undefined","undefined","1280 x 720","1280 x 720"
"7f6ab5ncghor8uzftf2xveztfr70sa6w","37","Male","4","3","right","yes","100","undefined","null","true","focus","yes","412219","Chrome","75.0","Windows","10","undefined","undefined","1280 x 720","1280 x 720"
"7f6ab5ncghor8uzftf2xveztfr70sa6w","37","Male","4","4","left","no","150","leftarrow","400","true","focus","yes","413391","Chrome","75.0","Windows","10","undefined","undefined","1280 x 720","1280 x 720"
"7f6ab5ncghor8uzftf2xveztfr70sa6w","37","Male","4","5","left","no","150","leftarrow","349","true","focus","yes","414519","Chrome","75.0","Windows","10","undefined","undefined","1280 x 720","1280 x 720"
"7f6ab5ncghor8uzftf2xveztfr70sa6w","37","Male","4","6","left","yes","150","leftarrow","368","false","focus","yes","415661","Chrome","75.0","Windows","10","undefined","undefined","1280 x 720","1280 x 720"
"7f6ab5ncghor8uzftf2xveztfr70sa6w","37","Male","4","7","right","no","100","rightarrow","368","true","focus","yes","416807","Chrome","75.0","Windows","10","undefined","undefined","1280 x 720","1280 x 720"
"7f6ab5ncghor8uzftf2xveztfr70sa6w","37","Male","4","8","left","no","100","leftarrow","424","true","focus","yes","418000","Chrome","75.0","Windows","10","undefined","undefined","1280 x 720","1280 x 720"
"7f6ab5ncghor8uzftf2xveztfr70sa6w","37","Male","4","9","right","yes","100","rightarrow","330","false","focus","yes","419091","Chrome","75.0","Windows","10","undefined","undefined","1280 x 720","1280 x 720"
"7f6ab5ncghor8uzftf2xveztfr70sa6w","37","Male","4","10","right","no","50","rightarrow","362","true","focus","yes","420226","Chrome","75.0","Windows","10","undefined","undefined","1280 x 720","1280 x 720"
"7f6ab5ncghor8uzftf2xveztfr70sa6w","37","Male","4","11","left","yes","50","undefined","null","true","focus","yes","422249","Chrome","75.0","Windows","10","undefined","undefined","1280 x 720","1280 x 720"
"7f6ab5ncghor8uzftf2xveztfr70sa6w","37","Male","4","12","right","no","100","rightarrow","383","true","focus","yes","423394","Chrome","75.0","Windows","10","undefined","undefined","1280 x 720","1280 x 720"
"7f6ab5ncghor8uzftf2xveztfr70sa6w","37","Male","4","13","right","no","100","rightarrow","295","true","focus","yes","424452","Chrome","75.0","Windows","10","undefined","undefined","1280 x 720","1280 x 720"
"7f6ab5ncghor8uzftf2xveztfr70sa6w","37","Male","4","14","left","no","100","leftarrow","392","true","focus","yes","425615","Chrome","75.0","Windows","10","undefined","undefined","1280 x 720","1280 x 720"
"7f6ab5ncghor8uzftf2xveztfr70sa6w","37","Male","4","15","left","no","100","leftarrow","311","true","focus","yes","426689","Chrome","75.0","Windows","10","undefined","undefined","1280 x 720","1280 x 720"
"7f6ab5ncghor8uzftf2xveztfr70sa6w","37","Male","4","16","left","no","100","leftarrow","390","true","focus","yes","427844","Chrome","75.0","Windows","10","undefined","undefined","1280 x 720","1280 x 720"
"7f6ab5ncghor8uzftf2xveztfr70sa6w","37","Male","4","17","left","no","100","leftarrow","354","true","focus","yes","428978","Chrome","75.0","Windows","10","undefined","undefined","1280 x 720","1280 x 720"
"7f6ab5ncghor8uzftf2xveztfr70sa6w","37","Male","4","18","left","yes","100","leftarrow","342","false","focus","yes","430096","Chrome","75.0","Windows","10","undefined","undefined","1280 x 720","1280 x 720"
"7f6ab5ncghor8uzftf2xveztfr70sa6w","37","Male","4","19","left","no","50","leftarrow","285","true","focus","yes","431153","Chrome","75.0","Windows","10","undefined","undefined","1280 x 720","1280 x 720"
"7f6ab5ncghor8uzftf2xveztfr70sa6w","37","Male","4","20","right","yes","50","undefined","null","true","focus","yes","433191","Chrome","75.0","Windows","10","undefined","undefined","1280 x 720","1280 x 720"
"7f6ab5ncghor8uzftf2xveztfr70sa6w","37","Male","4","21","left","no","100","rightarrow","346","false","focus","yes","434302","Chrome","75.0","Windows","10","undefined","undefined","1280 x 720","1280 x 720"
"7f6ab5ncghor8uzftf2xveztfr70sa6w","37","Male","4","22","right","no","100","rightarrow","439","true","focus","yes","435512","Chrome","75.0","Windows","10","undefined","undefined","1280 x 720","1280 x 720"
"7f6ab5ncghor8uzftf2xveztfr70sa6w","37","Male","4","23","right","no","100","rightarrow","356","true","focus","yes","436645","Chrome","75.0","Windows","10","undefined","undefined","1280 x 720","1280 x 720"
"7f6ab5ncghor8uzftf2xveztfr70sa6w","37","Male","4","24","right","no","100","rightarrow","333","true","focus","yes","437752","Chrome","75.0","Windows","10","undefined","undefined","1280 x 720","1280 x 720"
"7f6ab5ncghor8uzftf2xveztfr70sa6w","37","Male","4","25","right","no","100","rightarrow","316","true","focus","yes","438839","Chrome","75.0","Windows","10","undefined","undefined","1280 x 720","1280 x 720"
"7f6ab5ncghor8uzftf2xveztfr70sa6w","37","Male","4","26","left","yes","100","undefined","null","true","focus","yes","440873","Chrome","75.0","Windows","10","undefined","undefined","1280 x 720","1280 x 720"
"7f6ab5ncghor8uzftf2xveztfr70sa6w","37","Male","4","27","left","no","150","leftarrow","308","true","focus","yes","441953","Chrome","75.0","Windows","10","undefined","undefined","1280 x 720","1280 x 720"
"7f6ab5ncghor8uzftf2xveztfr70sa6w","37","Male","4","28","right","no","150","rightarrow","432","true","focus","yes","443158","Chrome","75.0","Windows","10","undefined","undefined","1280 x 720","1280 x 720"
"7f6ab5ncghor8uzftf2xveztfr70sa6w","37","Male","4","29","right","yes","150","undefined","null","true","focus","yes","445173","Chrome","75.0","Windows","10","undefined","undefined","1280 x 720","1280 x 720"
"7f6ab5ncghor8uzftf2xveztfr70sa6w","37","Male","4","30","left","no","200","leftarrow","401","true","focus","yes","446349","Chrome","75.0","Windows","10","undefined","undefined","1280 x 720","1280 x 720"
"7f6ab5ncghor8uzftf2xveztfr70sa6w","37","Male","4","31","left","no","200","leftarrow","285","true","focus","yes","447404","Chrome","75.0","Windows","10","undefined","undefined","1280 x 720","1280 x 720"
"7f6ab5ncghor8uzftf2xveztfr70sa6w","37","Male","4","32","right","no","200","rightarrow","428","true","focus","yes","448599","Chrome","75.0","Windows","10","undefined","undefined","1280 x 720","1280 x 720"
"7f6ab5ncghor8uzftf2xveztfr70sa6w","37","Male","4","33","left","no","200","leftarrow","381","true","focus","yes","449753","Chrome","75.0","Windows","10","undefined","undefined","1280 x 720","1280 x 720"
"7f6ab5ncghor8uzftf2xveztfr70sa6w","37","Male","4","34","right","no","200","rightarrow","356","true","focus","yes","450879","Chrome","75.0","Windows","10","undefined","undefined","1280 x 720","1280 x 720"
"7f6ab5ncghor8uzftf2xveztfr70sa6w","37","Male","4","35","right","yes","200","rightarrow","357","false","focus","yes","452005","Chrome","75.0","Windows","10","undefined","undefined","1280 x 720","1280 x 720"
"7f6ab5ncghor8uzftf2xveztfr70sa6w","37","Male","4","36","right","no","150","rightarrow","377","true","focus","yes","453166","Chrome","75.0","Windows","10","undefined","undefined","1280 x 720","1280 x 720"
"7f6ab5ncghor8uzftf2xveztfr70sa6w","37","Male","4","37","left","no","150","leftarrow","417","true","focus","yes","454361","Chrome","75.0","Windows","10","undefined","undefined","1280 x 720","1280 x 720"
"7f6ab5ncghor8uzftf2xveztfr70sa6w","37","Male","4","38","right","no","150","rightarrow","423","true","focus","yes","455569","Chrome","75.0","Windows","10","undefined","undefined","1280 x 720","1280 x 720"
"7f6ab5ncghor8uzftf2xveztfr70sa6w","37","Male","4","39","left","yes","150","undefined","null","true","focus","yes","457600","Chrome","75.0","Windows","10","undefined","undefined","1280 x 720","1280 x 720"
"7f6ab5ncghor8uzftf2xveztfr70sa6w","37","Male","4","40","left","no","200","leftarrow","323","true","focus","yes","458693","Chrome","75.0","Windows","10","undefined","undefined","1280 x 720","1280 x 720"
"7f6ab5ncghor8uzftf2xveztfr70sa6w","37","Male","4","41","left","yes","200","leftarrow","301","false","focus","yes","459763","Chrome","75.0","Windows","10","undefined","undefined","1280 x 720","1280 x 720"
"7f6ab5ncghor8uzftf2xveztfr70sa6w","37","Male","4","42","right","no","150","rightarrow","406","true","focus","yes","460947","Chrome","75.0","Windows","10","undefined","undefined","1280 x 720","1280 x 720"
"7f6ab5ncghor8uzftf2xveztfr70sa6w","37","Male","4","43","right","no","150","rightarrow","327","true","focus","yes","462043","Chrome","75.0","Windows","10","undefined","undefined","1280 x 720","1280 x 720"
"7f6ab5ncghor8uzftf2xveztfr70sa6w","37","Male","4","44","right","no","150","rightarrow","357","true","focus","yes","463180","Chrome","75.0","Windows","10","undefined","undefined","1280 x 720","1280 x 720"
"7f6ab5ncghor8uzftf2xveztfr70sa6w","37","Male","4","45","left","no","150","leftarrow","351","true","focus","yes","464298","Chrome","75.0","Windows","10","undefined","undefined","1280 x 720","1280 x 720"
"7f6ab5ncghor8uzftf2xveztfr70sa6w","37","Male","4","46","left","no","150","leftarrow","341","true","focus","yes","465403","Chrome","75.0","Windows","10","undefined","undefined","1280 x 720","1280 x 720"
"7f6ab5ncghor8uzftf2xveztfr70sa6w","37","Male","4","47","left","no","150","leftarrow","364","true","focus","yes","466531","Chrome","75.0","Windows","10","undefined","undefined","1280 x 720","1280 x 720"
"7f6ab5ncghor8uzftf2xveztfr70sa6w","37","Male","4","48","right","yes","150","rightarrow","399","false","focus","yes","467705","Chrome","75.0","Windows","10","undefined","undefined","1280 x 720","1280 x 720"
"7f6ab5ncghor8uzftf2xveztfr70sa6w","37","Male","4","49","left","yes","100","undefined","null","true","focus","yes","469743","Chrome","75.0","Windows","10","undefined","undefined","1280 x 720","1280 x 720"
"7f6ab5ncghor8uzftf2xveztfr70sa6w","37","Male","4","50","right","yes","150","undefined","null","true","focus","yes","471763","Chrome","75.0","Windows","10","undefined","undefined","1280 x 720","1280 x 720"
"7f6ab5ncghor8uzftf2xveztfr70sa6w","37","Male","4","51","right","no","200","rightarrow","351","true","focus","yes","472878","Chrome","75.0","Windows","10","undefined","undefined","1280 x 720","1280 x 720"
"7f6ab5ncghor8uzftf2xveztfr70sa6w","37","Male","4","52","right","no","200","rightarrow","380","true","focus","yes","474044","Chrome","75.0","Windows","10","undefined","undefined","1280 x 720","1280 x 720"
"7f6ab5ncghor8uzftf2xveztfr70sa6w","37","Male","4","53","left","no","200","rightarrow","248","false","focus","yes","475070","Chrome","75.0","Windows","10","undefined","undefined","1280 x 720","1280 x 720"
"7f6ab5ncghor8uzftf2xveztfr70sa6w","37","Male","4","54","right","no","200","rightarrow","401","true","focus","yes","476243","Chrome","75.0","Windows","10","undefined","undefined","1280 x 720","1280 x 720"
"7f6ab5ncghor8uzftf2xveztfr70sa6w","37","Male","4","55","left","no","200","leftarrow","366","true","focus","yes","477372","Chrome","75.0","Windows","10","undefined","undefined","1280 x 720","1280 x 720"
"7f6ab5ncghor8uzftf2xveztfr70sa6w","37","Male","4","56","left","no","200","leftarrow","359","true","focus","yes","478498","Chrome","75.0","Windows","10","undefined","undefined","1280 x 720","1280 x 720"
"7f6ab5ncghor8uzftf2xveztfr70sa6w","37","Male","4","57","right","no","200","rightarrow","476","true","focus","yes","479746","Chrome","75.0","Windows","10","undefined","undefined","1280 x 720","1280 x 720"
"7f6ab5ncghor8uzftf2xveztfr70sa6w","37","Male","4","58","right","no","200","rightarrow","354","true","focus","yes","480872","Chrome","75.0","Windows","10","undefined","undefined","1280 x 720","1280 x 720"
"7f6ab5ncghor8uzftf2xveztfr70sa6w","37","Male","4","59","right","no","200","rightarrow","390","true","focus","yes","482037","Chrome","75.0","Windows","10","undefined","undefined","1280 x 720","1280 x 720"
"7f6ab5ncghor8uzftf2xveztfr70sa6w","37","Male","4","60","left","yes","200","leftarrow","404","false","focus","yes","483208","Chrome","75.0","Windows","10","undefined","undefined","1280 x 720","1280 x 720"
"7f6ab5ncghor8uzftf2xveztfr70sa6w","37","Male","4","61","left","no","150","leftarrow","319","true","focus","yes","484301","Chrome","75.0","Windows","10","undefined","undefined","1280 x 720","1280 x 720"
"7f6ab5ncghor8uzftf2xveztfr70sa6w","37","Male","4","62","left","no","150","leftarrow","314","true","focus","yes","485387","Chrome","75.0","Windows","10","undefined","undefined","1280 x 720","1280 x 720"
"7f6ab5ncghor8uzftf2xveztfr70sa6w","37","Male","4","63","left","no","150","leftarrow","311","true","focus","yes","486466","Chrome","75.0","Windows","10","undefined","undefined","1280 x 720","1280 x 720"
"7f6ab5ncghor8uzftf2xveztfr70sa6w","37","Male","4","64","right","yes","150","rightarrow","402","false","focus","yes","487639","Chrome","75.0","Windows","10","undefined","undefined","1280 x 720","1280 x 720"
